mename: Alex Simon
 id: 124989184990979
 
me/friendsdata: name: Manish Singh
 id: 783067831755274
 paging: cursors: before: QVFIUjU1d3B2MFJScjVMeDJwQVRIT3lNWjJSdjV4V0cwSEVlVHJhYkNZAa2hDUjZAfb1dWdFpCajJvS2tOMjRELXdvRk05YlYtTHlPQlM5SFotOUNxQTVXY2tR
 after: QVFIUjU1d3B2MFJScjVMeDJwQVRIT3lNWjJSdjV4V0cwSEVlVHJhYkNZAa2hDUjZAfb1dWdFpCajJvS2tOMjRELXdvRk05YlYtTHlPQlM5SFotOUNxQTVXY2tR
 summary: total_count: 3
 

 created_time: 2018-03-08T16:49:15+0000
 id: 124989184990979_139618780194686
 message: I am progressing slowly and steadily
 i Cannot guarantee the analysis part but will surely come up with a better structure and format to store data.
 created_time: 2018-02-26T16:38:49+0000
 id: 124989184990979_131862170970347
 story: Alex Simon updated her cover photo.
 created_time: 2018-02-19T05:41:02+0000
 id: 124989184990979_125001298323101
 story: Alex Simon is in Brussels
 Belgium.
 created_time: 2018-02-19T05:29:23+0000
 id: 124989184990979_124994248323806
 story: Alex Simon updated her profile picture.
 created_time: 2018-02-19T05:18:10+0000
 id: 124989184990979_124986738324557
 message: I love Dogs!
 created_time: 2018-02-19T05:17:37+0000
 id: 124989184990979_124986511657913
 message: Good morning People!
 created_time: 2018-02-19T05:13:17+0000
 id: 124989184990979_124984618324769
 created_time: 2018-02-16T11:27:22+0000
 id: 124989184990979_120768418746389
 paging: previous: https://graph.facebook.com/v2.12/124989184990979/posts?since=1520527755&access_token=EAACEdEose0cBAFhqJwZCMq2EwfvfZCKQDgDp5FppovdmdGY68QnBZAN269E16LQqH8ZBUBXv2EPVVprjhojQQ1JRdhIhQE6XXRx9b0ppNLegPswHRPVTNE1CgqpEtfUBNlBEZAj1mrpgZA2ZBUHxA7xk2I2esczYozEZAIyucaJSppPsNZAekT8VqktcMnZCoumpx9ZB5t5mmKHKgZDZD&limit=25&__paging_token=enc_AdD7Hqu5RrNqnbkRuhHBuSFdrUIeC9ZBgYBuOaUbbFUtx2tWT0yXmRWFJGpSEGTSGwGWh1kqrbJ5ZBRr5Pdfd8SqT3BMXdAeDIibPz1aqWBSgaRQZDZD&__previous=1
 next: https://graph.facebook.com/v2.12/124989184990979/posts?access_token=EAACEdEose0cBAFhqJwZCMq2EwfvfZCKQDgDp5FppovdmdGY68QnBZAN269E16LQqH8ZBUBXv2EPVVprjhojQQ1JRdhIhQE6XXRx9b0ppNLegPswHRPVTNE1CgqpEtfUBNlBEZAj1mrpgZA2ZBUHxA7xk2I2esczYozEZAIyucaJSppPsNZAekT8VqktcMnZCoumpx9ZB5t5mmKHKgZDZD&limit=25&until=1518780442&__paging_token=enc_AdCEywqwZAPyPJLbawaiDI41qZAWBel4Cr69AAsnJxDuwD8EeD40ucbuHmtqfISZBzB4nhpDJRV26vEjF1Qr9QPIxEUPfqQAJJb3ishvqgqRZCsnVwZDZD
 
124989184990979_124986511657913/likesdata: id: 551266388323677
 name: Gowrav Surana
 id: 783067831755274
 name: Manish Singh
 paging: cursors: before: NTUxMjY2Mzg4MzIzNjc3
 after: NzgzMDY3ODMxNzU1Mjc0
 
124989184990979_124986511657913/commentsdata: created_time: 2018-02-19T17:33:44+0000
 from: name: Manish Singh
 id: 783067831755274
 message: Good Job Gal!
 id: 124986511657913_125581364931761
 created_time: 2018-02-26T15:40:38+0000
 from: name: Gowrav Surana
 id: 551266388323677
 message: I hate 


 \ud83d\ude13
 id: 124986511657913_131818394308058
 created_time: 2018-03-09T03:50:42+0000
 from: name: Alex Simon
 id: 124989184990979
 message: Doesn't matter
 id: 124986511657913_139910396832191
 paging: cursors: before: WTI5dGJXVnVkRjlqZAFhKemIzSTZANVEkxTlRneE16WTBPVE14TnpZAeE9qRTFNVGt3TmpFMk1qUT0ZD
 after: WTI5dGJXVnVkRjlqZAFhKemIzSTZANVE01T1RFd016azJPRE15TVRreE9qRTFNakExTmpjME5ETT0ZD
 
me
 
name: Alex Simon
 id: 124989184990979
 
me/friends
 
data: name: Manish Singh
 id: 783067831755274
 paging: cursors: before: QVFIUjU1d3B2MFJScjVMeDJwQVRIT3lNWjJSdjV4V0cwSEVlVHJhYkNZAa2hDUjZAfb1dWdFpCajJvS2tOMjRELXdvRk05YlYtTHlPQlM5SFotOUNxQTVXY2tR
 after: QVFIUjU1d3B2MFJScjVMeDJwQVRIT3lNWjJSdjV4V0cwSEVlVHJhYkNZAa2hDUjZAfb1dWdFpCajJvS2tOMjRELXdvRk05YlYtTHlPQlM5SFotOUNxQTVXY2tR
 summary: total_count: 3
 
me/posts
 
data: message: HEY\ud83d\ude02
 created_time: 2018-03-08T16:49:15+0000
 id: 124989184990979_139618780194686
 message: I am progressing slowly and steadily
 i Cannot guarantee the analysis part but will surely come up with a better structure and format to store data.
 created_time: 2018-02-26T16:38:49+0000
 id: 124989184990979_131862170970347
 story: Alex Simon updated her cover photo.
 created_time: 2018-02-19T05:41:02+0000
 id: 124989184990979_125001298323101
 story: Alex Simon is in Brussels
 Belgium.
 created_time: 2018-02-19T05:29:23+0000
 id: 124989184990979_124994248323806
 story: Alex Simon updated her profile picture.
 created_time: 2018-02-19T05:18:10+0000
 id: 124989184990979_124986738324557
 message: I love Dogs!
 created_time: 2018-02-19T05:17:37+0000
 id: 124989184990979_124986511657913
 message: Good morning People!
 created_time: 2018-02-19T05:13:17+0000
 id: 124989184990979_124984618324769
 created_time: 2018-02-16T11:27:22+0000
 id: 124989184990979_120768418746389
 paging: previous: https://graph.facebook.com/v2.12/124989184990979/posts?since=1520527755&access_token=EAACEdEose0cBAFhqJwZCMq2EwfvfZCKQDgDp5FppovdmdGY68QnBZAN269E16LQqH8ZBUBXv2EPVVprjhojQQ1JRdhIhQE6XXRx9b0ppNLegPswHRPVTNE1CgqpEtfUBNlBEZAj1mrpgZA2ZBUHxA7xk2I2esczYozEZAIyucaJSppPsNZAekT8VqktcMnZCoumpx9ZB5t5mmKHKgZDZD&limit=25&__paging_token=enc_AdD7Hqu5RrNqnbkRuhHBuSFdrUIeC9ZBgYBuOaUbbFUtx2tWT0yXmRWFJGpSEGTSGwGWh1kqrbJ5ZBRr5Pdfd8SqT3BMXdAeDIibPz1aqWBSgaRQZDZD&__previous=1
 next: https://graph.facebook.com/v2.12/124989184990979/posts?access_token=EAACEdEose0cBAFhqJwZCMq2EwfvfZCKQDgDp5FppovdmdGY68QnBZAN269E16LQqH8ZBUBXv2EPVVprjhojQQ1JRdhIhQE6XXRx9b0ppNLegPswHRPVTNE1CgqpEtfUBNlBEZAj1mrpgZA2ZBUHxA7xk2I2esczYozEZAIyucaJSppPsNZAekT8VqktcMnZCoumpx9ZB5t5mmKHKgZDZD&limit=25&until=1518780442&__paging_token=enc_AdCEywqwZAPyPJLbawaiDI41qZAWBel4Cr69AAsnJxDuwD8EeD40ucbuHmtqfISZBzB4nhpDJRV26vEjF1Qr9QPIxEUPfqQAJJb3ishvqgqRZCsnVwZDZD
 
124989184990979_124986511657913/likes
 
data: id: 551266388323677
 name: Gowrav Surana
 id: 783067831755274
 name: Manish Singh
 paging: cursors: before: NTUxMjY2Mzg4MzIzNjc3
 after: NzgzMDY3ODMxNzU1Mjc0
 
124989184990979_124986511657913/comments
 
data: created_time: 2018-02-19T17:33:44+0000
 from: name: Manish Singh
 id: 783067831755274
 message: Good Job Gal!
 id: 124986511657913_125581364931761
 created_time: 2018-02-26T15:40:38+0000
 from: name: Gowrav Surana
 id: 551266388323677
 message: I hate them! \ud83d\ude13
 id: 124986511657913_131818394308058
 created_time: 2018-03-09T03:50:42+0000
 from: name: Alex Simon
 id: 124989184990979
 message: Doesn't matter
 id: 124986511657913_139910396832191
 paging: cursors: before: WTI5dGJXVnVkRjlqZAFhKemIzSTZANVEkxTlRneE16WTBPVE14TnpZAeE9qRTFNVGt3TmpFMk1qUT0ZD
 after: WTI5dGJXVnVkRjlqZAFhKemIzSTZANVE01T1RFd016azJPRE15TVRreE9qRTFNakExTmpjME5ETT0ZD
 
me
 
name: Alex Simon
 id: 124989184990979
 
me/friends
 
data: name: Manish Singh
 id: 783067831755274
 paging: cursors: before: QVFIUjU1d3B2MFJScjVMeDJwQVRIT3lNWjJSdjV4V0cwSEVlVHJhYkNZAa2hDUjZAfb1dWdFpCajJvS2tOMjRELXdvRk05YlYtTHlPQlM5SFotOUNxQTVXY2tR
 after: QVFIUjU1d3B2MFJScjVMeDJwQVRIT3lNWjJSdjV4V0cwSEVlVHJhYkNZAa2hDUjZAfb1dWdFpCajJvS2tOMjRELXdvRk05YlYtTHlPQlM5SFotOUNxQTVXY2tR
 summary: total_count: 3
 
me/posts
 
data: message: Good Morning Sir
 created_time: 2018-03-09T04:27:07+0000
 id: 124989184990979_139925083497389
 message: HEY\ud83d\ude02
 created_time: 2018-03-08T16:49:15+0000
 id: 124989184990979_139618780194686
 message: I am progressing slowly and steadily
 i Cannot guarantee the analysis part but will surely come up with a better structure and format to store data.
 created_time: 2018-02-26T16:38:49+0000
 id: 124989184990979_131862170970347
 story: Alex Simon updated her cover photo.
 created_time: 2018-02-19T05:41:02+0000
 id: 124989184990979_125001298323101
 story: Alex Simon is in Brussels
 Belgium.
 created_time: 2018-02-19T05:29:23+0000
 id: 124989184990979_124994248323806
 story: Alex Simon updated her profile picture.
 created_time: 2018-02-19T05:18:10+0000
 id: 124989184990979_124986738324557
 message: I love Dogs!
 created_time: 2018-02-19T05:17:37+0000
 id: 124989184990979_124986511657913
 message: Good morning People!
 created_time: 2018-02-19T05:13:17+0000
 id: 124989184990979_124984618324769
 created_time: 2018-02-16T11:27:22+0000
 id: 124989184990979_120768418746389
 paging: previous: https://graph.facebook.com/v2.12/124989184990979/posts?since=1520569627&access_token=EAACEdEose0cBAEWFbTPo5TqPGiMh2d8MCjF9o8WRNrqUpxSyzPmisZBfDAoBnwSCPaB29y8g2hftTZCZAFMdkwunrbD9Gvqd3mNZBqizgv7ZAWUnkT2WAPjGFGIaTRXWAPnfCRSBaKrlGAJrrJEEgevUMzLd1YyE92xGBxZAFwKpi3bhSece66iXlM7a9GlhEEeqR64vydeSq1xZAdGPS1r&limit=25&__paging_token=enc_AdAY2IK1AZC200RB2xAISW7ZCLrPlPpk5ilPSuMnyPKzs0g4wMPbBrWoaBrodYHxZAQAl7G7BjNRDtETMWZA6Je8y2K0HRxZBIfXTEbl3zZBubXIUk7AZDZD&__previous=1
 next: https://graph.facebook.com/v2.12/124989184990979/posts?access_token=EAACEdEose0cBAEWFbTPo5TqPGiMh2d8MCjF9o8WRNrqUpxSyzPmisZBfDAoBnwSCPaB29y8g2hftTZCZAFMdkwunrbD9Gvqd3mNZBqizgv7ZAWUnkT2WAPjGFGIaTRXWAPnfCRSBaKrlGAJrrJEEgevUMzLd1YyE92xGBxZAFwKpi3bhSece66iXlM7a9GlhEEeqR64vydeSq1xZAdGPS1r&limit=25&until=1518780442&__paging_token=enc_AdCEywqwZAPyPJLbawaiDI41qZAWBel4Cr69AAsnJxDuwD8EeD40ucbuHmtqfISZBzB4nhpDJRV26vEjF1Qr9QPIxEUPfqQAJJb3ishvqgqRZCsnVwZDZD
 
124989184990979_124986511657913/likes
 
data: id: 551266388323677
 name: Gowrav Surana
 id: 783067831755274
 name: Manish Singh
 paging: cursors: before: NTUxMjY2Mzg4MzIzNjc3
 after: NzgzMDY3ODMxNzU1Mjc0
 
124989184990979_124986511657913/comments
 
data: created_time: 2018-02-19T17:33:44+0000
 from: name: Manish Singh
 id: 783067831755274
 message: Good Job Gal!
 id: 124986511657913_125581364931761
 created_time: 2018-02-26T15:40:38+0000
 from: name: Gowrav Surana
 id: 551266388323677
 message: I hate them! \ud83d\ude13
 id: 124986511657913_131818394308058
 created_time: 2018-03-09T03:50:42+0000
 from: name: Alex Simon
 id: 124989184990979
 message: Doesn't matter
 id: 124986511657913_139910396832191
 paging: cursors: before: WTI5dGJXVnVkRjlqZAFhKemIzSTZANVEkxTlRneE16WTBPVE14TnpZAeE9qRTFNVGt3TmpFMk1qUT0ZD
 after: WTI5dGJXVnVkRjlqZAFhKemIzSTZANVE01T1RFd016azJPRE15TVRreE9qRTFNakExTmpjME5ETT0ZD
 
me
 
name: Alex Simon
 id: 124989184990979
 
me/friends
 
data: name: Manish Singh
 id: 783067831755274
 paging: cursors: before: QVFIUjU1d3B2MFJScjVMeDJwQVRIT3lNWjJSdjV4V0cwSEVlVHJhYkNZAa2hDUjZAfb1dWdFpCajJvS2tOMjRELXdvRk05YlYtTHlPQlM5SFotOUNxQTVXY2tR
 after: QVFIUjU1d3B2MFJScjVMeDJwQVRIT3lNWjJSdjV4V0cwSEVlVHJhYkNZAa2hDUjZAfb1dWdFpCajJvS2tOMjRELXdvRk05YlYtTHlPQlM5SFotOUNxQTVXY2tR
 summary: total_count: 3
 
me/posts
 
data: message: Good Morning Sir
 created_time: 2018-03-09T04:27:07+0000
 id: 124989184990979_139925083497389
 message: HEY\ud83d\ude02
 created_time: 2018-03-08T16:49:15+0000
 id: 124989184990979_139618780194686
 message: I am progressing slowly and steadily
 i Cannot guarantee the analysis part but will surely come up with a better structure and format to store data.
 created_time: 2018-02-26T16:38:49+0000
 id: 124989184990979_131862170970347
 story: Alex Simon updated her cover photo.
 created_time: 2018-02-19T05:41:02+0000
 id: 124989184990979_125001298323101
 story: Alex Simon is in Brussels
 Belgium.
 created_time: 2018-02-19T05:29:23+0000
 id: 124989184990979_124994248323806
 story: Alex Simon updated her profile picture.
 created_time: 2018-02-19T05:18:10+0000
 id: 124989184990979_124986738324557
 message: I love Dogs!
 created_time: 2018-02-19T05:17:37+0000
 id: 124989184990979_124986511657913
 message: Good morning People!
 created_time: 2018-02-19T05:13:17+0000
 id: 124989184990979_124984618324769
 created_time: 2018-02-16T11:27:22+0000
 id: 124989184990979_120768418746389
 paging: previous: https://graph.facebook.com/v2.12/124989184990979/posts?since=1520569627&access_token=EAACEdEose0cBAEWFbTPo5TqPGiMh2d8MCjF9o8WRNrqUpxSyzPmisZBfDAoBnwSCPaB29y8g2hftTZCZAFMdkwunrbD9Gvqd3mNZBqizgv7ZAWUnkT2WAPjGFGIaTRXWAPnfCRSBaKrlGAJrrJEEgevUMzLd1YyE92xGBxZAFwKpi3bhSece66iXlM7a9GlhEEeqR64vydeSq1xZAdGPS1r&limit=25&__paging_token=enc_AdAY2IK1AZC200RB2xAISW7ZCLrPlPpk5ilPSuMnyPKzs0g4wMPbBrWoaBrodYHxZAQAl7G7BjNRDtETMWZA6Je8y2K0HRxZBIfXTEbl3zZBubXIUk7AZDZD&__previous=1
 next: https://graph.facebook.com/v2.12/124989184990979/posts?access_token=EAACEdEose0cBAEWFbTPo5TqPGiMh2d8MCjF9o8WRNrqUpxSyzPmisZBfDAoBnwSCPaB29y8g2hftTZCZAFMdkwunrbD9Gvqd3mNZBqizgv7ZAWUnkT2WAPjGFGIaTRXWAPnfCRSBaKrlGAJrrJEEgevUMzLd1YyE92xGBxZAFwKpi3bhSece66iXlM7a9GlhEEeqR64vydeSq1xZAdGPS1r&limit=25&until=1518780442&__paging_token=enc_AdCEywqwZAPyPJLbawaiDI41qZAWBel4Cr69AAsnJxDuwD8EeD40ucbuHmtqfISZBzB4nhpDJRV26vEjF1Qr9QPIxEUPfqQAJJb3ishvqgqRZCsnVwZDZD
 
124989184990979_124986511657913/likes
 
data: id: 551266388323677
 name: Gowrav Surana
 id: 783067831755274
 name: Manish Singh
 paging: cursors: before: NTUxMjY2Mzg4MzIzNjc3
 after: NzgzMDY3ODMxNzU1Mjc0
 
124989184990979_124986511657913/comments
 
data: created_time: 2018-02-19T17:33:44+0000
 from: name: Manish Singh
 id: 783067831755274
 message: Good Job Gal!
 id: 124986511657913_125581364931761
 created_time: 2018-02-26T15:40:38+0000
 from: name: Gowrav Surana
 id: 551266388323677
 message: I hate them! \ud83d\ude13
 id: 124986511657913_131818394308058
 created_time: 2018-03-09T03:50:42+0000
 from: name: Alex Simon
 id: 124989184990979
 message: Doesn't matter
 id: 124986511657913_139910396832191
 paging: cursors: before: WTI5dGJXVnVkRjlqZAFhKemIzSTZANVEkxTlRneE16WTBPVE14TnpZAeE9qRTFNVGt3TmpFMk1qUT0ZD
 after: WTI5dGJXVnVkRjlqZAFhKemIzSTZANVE01T1RFd016azJPRE15TVRreE9qRTFNakExTmpjME5ETT0ZD
 
